%YAML 1.1
%TAG !u! tag:unity3d.com,2011:
--- !u!162 &1
EditorUserSettings:
  m_ObjectHideFlags: 0
  serializedVersion: 4
  m_ConfigSettings:
    RecentlyUsedScenePath-0:
      value: 224247031146466218090437153079021312352f38292a1d2c3d1821ebe1382badc333e4e8750c3f0626ca112b013819df27363be40e1c021419b31b1ff6040a
      flags: 0
    RecentlyUsedScenePath-1:
      value: 22424703114646680e0b0227036c6c111b07142f1f2b233e2867083debf42d
      flags: 0
    RecentlyUsedScenePath-2:
      value: 22424703114646710c1e0d2c15305a5035181124633834353e2c1327e3f43d37eca923e7ee2e26
      flags: 0
    RecentlyUsedScenePath-3:
      value: 2242470311464677041f192b140556021357282b2f23273728694973afa0160bcaa731e8ea3f2c731d07f9280b37057fbf4a2e04fa0f4a281e07f31d5ecc13161fc057e11fde0b13c21d51e9c211d5afe6dfd8fcddf9abfbd1cfb0f7e6d3e1f1fbe2ebeea4a1e8d9
      flags: 0
    RecentlyUsedScenePath-4:
      value: 22424703114646680e0b0227036c731500121478623d28393930
      flags: 0
    RecentlyUsedScenePath-5:
      value: 22424703114646680e0b0227036c73150012147b623d28393930
      flags: 0
    UnityRemoteDevice:
      value: 225f4d46245b0d4902070862342649191512
      flags: 0
    vcSharedLogLevel:
      value: 0d5e400f0650
      flags: 0
  m_VCAutomaticAdd: 1
  m_VCDebugCom: 0
  m_VCDebugCmd: 0
  m_VCDebugOut: 0
  m_SemanticMergeMode: 2
  m_VCShowFailedCheckout: 1
  m_VCOverwriteFailedCheckoutAssets: 1
  m_VCProjectOverlayIcons: 1
  m_VCHierarchyOverlayIcons: 1
  m_VCOtherOverlayIcons: 1
  m_VCAllowAsyncUpdate: 1
